<?xml version="1.0" encoding="iso-8859-1"?>
<!-- Generator: Adobe Illustrator 19.0.0, SVG Export Plug-In . SVG Version: 6.00 Build 0)  -->
<svg version="1.1" id="Layer_1" xmlns="http://www.w3.org/2000/svg" xmlns:xlink="http://www.w3.org/1999/xlink" x="0px" y="0px"
	 viewBox="0 0 512 512" style="enable-background:new 0 0 512 512;" xml:space="preserve">
<g>
			<path d="M366.292,215.99L241.417,325.781c-0.167,0.146-0.333,0.292-0.479,0.448c-4.042,4.021-6.271,9.385-6.271,15.104
				c0,11.76,9.563,21.333,21.333,21.333c5.667,0,11.021-2.208,15.563-6.75l109.792-124.875c3.708-4.219,3.5-10.604-0.479-14.583
				C376.896,212.49,370.542,212.281,366.292,215.99z"/>
			
		</g>
</svg>
